Exploratory Data Analysis
…
flights %>%
  filter(dep_delay > 120)

# A tibble: 9,723 x 19
    year month   day dep_time sched_dep_time dep_delay arr_time
   <int> <int> <int>    <int>          <int>     <dbl>    <int>
 1  2013     1     1      848           1835       853     1001
 2  2013     1     1      957            733       144     1056
 3  2013     1     1     1114            900       134     1447
 4  2013     1     1     1540           1338       122     2020
 5  2013     1     1     1815           1325       290     2120
 6  2013     1     1     1842           1422       260     1958
 7  2013     1     1     1856           1645       131     2212
 8  2013     1     1     1934           1725       129     2126
 9  2013     1     1     1938           1703       155     2109
10  2013     1     1     1942           1705       157     2124
# … with 9,713 more rows, and 12 more variables: sched_arr_time <int>,
#   arr_delay <dbl>, carrier <chr>, flight <int>, tailnum <chr>,
#   origin <chr>, dest <chr>, air_time <dbl>, distance <dbl>, hour <dbl>,
#   minute <dbl>, time_hour <dttm>
…
